module gitlab.com/go-yp/aerofill

go 1.14

require (
	github.com/aerospike/aerospike-client-go v2.9.0+incompatible
	github.com/onsi/ginkgo v1.12.0 // indirect
	github.com/onsi/gomega v1.9.0 // indirect
	github.com/yuin/gopher-lua v0.0.0-20191220021717-ab39c6098bdb // indirect
	golang.org/x/sync v0.0.0-20200317015054-43a5402ce75a // indirect
)
